<svg width="12" height="12" viewBox="0 0 12 12" fill="none" xmlns="http://www.w3.org/2000/svg">
<path d="M11.0379 6.53033C11.3308 6.23744 11.3308 5.76256 11.0379 5.46967L6.26493 0.6967C5.97203 0.403806 5.49716 0.403806 5.20427 0.6967C4.91137 0.989593 4.91137 1.46447 5.20427 1.75736L9.44691 6L5.20427 10.2426C4.91137 10.5355 4.91137 11.0104 5.20427 11.3033C5.49716 11.5962 5.97203 11.5962 6.26493 11.3033L11.0379 6.53033ZM0.00756829 6.75L10.5076 6.75L10.5076 5.25L0.00756842 5.25L0.00756829 6.75Z" fill="#6BA0FF"/>
</svg>
