<svg width="77" height="80" viewBox="0 0 77 80" fill="none" xmlns="http://www.w3.org/2000/svg">
<path d="M71.4828 13.2375H50.3027V18.5326H71.4828V74.1303H50.3027V79.4253H76.7779V18.5326C76.7779 17.1282 76.22 15.7814 75.227 14.7884C74.234 13.7954 72.8872 13.2375 71.4828 13.2375Z" fill="#6BA0FF"/>
<path d="M42.0425 0H5.61272C4.12414 0 2.69652 0.591339 1.64393 1.64393C0.591339 2.69652 0 4.12414 0 5.61272V79.4254H47.6552V5.61272C47.6552 4.12414 47.0639 2.69652 46.0113 1.64393C44.9587 0.591339 43.5311 0 42.0425 0ZM42.3602 74.1303H34.4176V66.1878H13.2376V74.1303H5.29502V5.61272C5.29502 5.571 5.30324 5.52969 5.31921 5.49115C5.33517 5.4526 5.35857 5.41758 5.38808 5.38808C5.41758 5.35857 5.4526 5.33517 5.49115 5.31921C5.52969 5.30324 5.571 5.29502 5.61272 5.29502H42.0425C42.0842 5.29502 42.1255 5.30324 42.1641 5.31921C42.2026 5.33517 42.2376 5.35857 42.2671 5.38808C42.2966 5.41758 42.32 5.4526 42.336 5.49115C42.352 5.52969 42.3602 5.571 42.3602 5.61272V74.1303Z" fill="#6BA0FF"/>
<path d="M10.5898 13.2375H15.8849V18.5326H10.5898V13.2375Z" fill="#6BA0FF"/>
<path d="M21.1802 13.2375H26.4752V18.5326H21.1802V13.2375Z" fill="#6BA0FF"/>
<path d="M31.77 13.2375H37.065V18.5326H31.77V13.2375Z" fill="#6BA0FF"/>
<path d="M10.5898 26.4751H15.8849V31.7701H10.5898V26.4751Z" fill="#6BA0FF"/>
<path d="M21.1802 26.4751H26.4752V31.7701H21.1802V26.4751Z" fill="#6BA0FF"/>
<path d="M31.77 26.4751H37.065V31.7701H31.77V26.4751Z" fill="#6BA0FF"/>
<path d="M10.5898 39.7126H15.8849V45.0077H10.5898V39.7126Z" fill="#6BA0FF"/>
<path d="M21.1802 39.7126H26.4752V45.0077H21.1802V39.7126Z" fill="#6BA0FF"/>
<path d="M31.77 39.7126H37.065V45.0077H31.77V39.7126Z" fill="#6BA0FF"/>
<path d="M10.5898 52.9502H15.8849V58.2452H10.5898V52.9502Z" fill="#6BA0FF"/>
<path d="M21.1802 52.9502H26.4752V58.2452H21.1802V52.9502Z" fill="#6BA0FF"/>
<path d="M31.77 52.9502H37.065V58.2452H31.77V52.9502Z" fill="#6BA0FF"/>
<path d="M50.3027 26.4751H55.5978V31.7701H50.3027V26.4751Z" fill="#6BA0FF"/>
<path d="M60.8926 26.4751H66.1876V31.7701H60.8926V26.4751Z" fill="#6BA0FF"/>
<path d="M50.3027 39.7126H55.5978V45.0077H50.3027V39.7126Z" fill="#6BA0FF"/>
<path d="M60.8926 39.7126H66.1876V45.0077H60.8926V39.7126Z" fill="#6BA0FF"/>
<path d="M50.3027 52.9502H55.5978V58.2452H50.3027V52.9502Z" fill="#6BA0FF"/>
<path d="M60.8926 52.9502H66.1876V58.2452H60.8926V52.9502Z" fill="#6BA0FF"/>
</svg>
