<svg width="38" height="38" viewBox="0 0 38 38" fill="none" xmlns="http://www.w3.org/2000/svg">
<g clip-path="url(#clip0)">
<path fill-rule="evenodd" clip-rule="evenodd" d="M8.71276 5.24971C8.29657 5.24971 7.91932 5.49452 7.74978 5.87462L4.60183 12.9321H22.2702C22.4448 10.5487 24.6144 8.76709 27.1247 8.76709C29.6349 8.76709 31.8045 10.5487 31.9791 12.9321H33.815L30.986 5.91012C30.8252 5.51107 30.4382 5.24971 30.008 5.24971H8.71276ZM30.5225 12.9321C30.3486 11.4585 28.9532 10.2168 27.1247 10.2168C25.2961 10.2168 23.9007 11.4585 23.7268 12.9321H30.5225ZM34.5246 14.3818H3.82182L1.63301 16.9779C1.47267 17.1681 1.38472 17.4088 1.38472 17.6576V26.7287H36.6599V17.5975C36.6599 17.3706 36.5866 17.1496 36.451 16.9676L34.5246 14.3818ZM2.86464 13.2681L6.42584 5.28409C6.82847 4.38143 7.72438 3.80005 8.71276 3.80005H30.008C31.0296 3.80005 31.9489 4.42073 32.3307 5.36839L35.5257 13.2991L37.6135 16.1015C37.9356 16.5338 38.1096 17.0585 38.1096 17.5975V28.1784H37.3752V29.4609C37.3752 32.0568 35.2708 34.1612 32.6749 34.1612C30.079 34.1612 27.9746 32.0568 27.9746 29.4609V28.1784H10.0698V29.4609C10.0698 32.0568 7.96543 34.1612 5.36954 34.1612C2.77365 34.1612 0.669268 32.0568 0.669268 29.4609V28.1784H-0.0649414V17.6576C-0.0649414 17.0668 0.143909 16.4951 0.524691 16.0435L2.86464 13.2681ZM29.4243 28.1784H35.9255V29.4609C35.9255 31.2562 34.4702 32.7115 32.6749 32.7115C30.8796 32.7115 29.4243 31.2562 29.4243 29.4609V28.1784ZM2.11893 28.1784V29.4609C2.11893 31.2562 3.57428 32.7115 5.36954 32.7115C7.1648 32.7115 8.62015 31.2562 8.62015 29.4609V28.1784H2.11893ZM14.1828 19.7342C14.1828 19.3339 14.5073 19.0094 14.9077 19.0094H23.2756C23.6759 19.0094 24.0004 19.3339 24.0004 19.7342C24.0004 20.1345 23.6759 20.459 23.2756 20.459H14.9077C14.5073 20.459 14.1828 20.1345 14.1828 19.7342ZM14.1828 22.3798C14.1828 21.9795 14.5073 21.655 14.9077 21.655H23.2756C23.6759 21.655 24.0004 21.9795 24.0004 22.3798C24.0004 22.7802 23.6759 23.1047 23.2756 23.1047H14.9077C14.5073 23.1047 14.1828 22.7802 14.1828 22.3798ZM5.92512 20.0378H9.2679C9.44993 20.0378 9.59749 20.1853 9.59749 20.3673V21.5671C9.59749 21.7491 9.44992 21.8967 9.26789 21.8967H5.92512C5.74309 21.8967 5.59552 21.7491 5.59552 21.5671V20.3673C5.59552 20.1853 5.74309 20.0378 5.92512 20.0378ZM4.14586 20.3673C4.14586 19.3847 4.94246 18.5881 5.92512 18.5881H9.2679C10.2506 18.5881 11.0472 19.3847 11.0472 20.3673V21.5671C11.0472 22.5497 10.2506 23.3463 9.26789 23.3463H5.92512C4.94246 23.3463 4.14586 22.5497 4.14586 21.5671V20.3673ZM31.8395 20.0378H28.4967C28.3147 20.0378 28.1671 20.1853 28.1671 20.3673V21.5671C28.1671 21.7491 28.3147 21.8967 28.4967 21.8967H31.8395C32.0215 21.8967 32.1691 21.7491 32.1691 21.5671V20.3673C32.1691 20.1853 32.0215 20.0378 31.8395 20.0378ZM28.4967 18.5881C27.5141 18.5881 26.7175 19.3847 26.7175 20.3673V21.5671C26.7175 22.5497 27.5141 23.3463 28.4967 23.3463H31.8395C32.8221 23.3463 33.6187 22.5497 33.6187 21.5671V20.3673C33.6187 19.3847 32.8221 18.5881 31.8395 18.5881H28.4967Z" fill="#ED1940"/>
</g>
<defs>
<clipPath id="clip0">
<rect width="38" height="38" fill="white"/>
</clipPath>
</defs>
</svg>
