<svg width="38" height="29" viewBox="0 0 38 29" fill="none" xmlns="http://www.w3.org/2000/svg">
<path d="M36.6429 0H1.35714C0.606473 0 0 0.578906 0 1.29545V27.2045C0 27.9211 0.606473 28.5 1.35714 28.5H36.6429C37.3935 28.5 38 27.9211 38 27.2045V1.29545C38 0.578906 37.3935 0 36.6429 0ZM34.9464 4.48551V25.5852H3.05357V4.48551L1.88304 3.61513L3.54978 1.57074L5.36495 2.91882H32.6393L34.4545 1.57074L36.1212 3.61513L34.9464 4.48551ZM32.6393 2.91477L19 13.0355L5.36071 2.91477L3.54554 1.56669L1.87879 3.61108L3.04933 4.48146L17.5368 15.2337C17.9535 15.5427 18.466 15.7104 18.9936 15.7104C19.5212 15.7104 20.0338 15.5427 20.4504 15.2337L34.9464 4.48551L36.117 3.61513L34.4502 1.57074L32.6393 2.91477Z" fill="#C4D9FF"/>
</svg>
