<svg width="198" height="32" viewBox="0 0 198 32" fill="none" xmlns="http://www.w3.org/2000/svg">
<path fill-rule="evenodd" clip-rule="evenodd" d="M127.149 18.4509H159.198V13.5469H127.149V18.4509Z" fill="#ED1940"/>
<path fill-rule="evenodd" clip-rule="evenodd" d="M127.149 4.9029H159.198V0H127.149V4.9029Z" fill="#ED1940"/>
<path fill-rule="evenodd" clip-rule="evenodd" d="M127.149 31.9996H159.198V27.0967H127.149V31.9996Z" fill="#ED1940"/>
<path fill-rule="evenodd" clip-rule="evenodd" d="M197.908 4.15234H191.478L182.582 14.1738L173.822 4.15234H167.346L179.391 17.9832L167.541 31.9996H174.011L182.581 21.5723L191.196 31.9996H197.619L185.773 17.9832L197.908 4.15234Z" fill="white"/>
<path fill-rule="evenodd" clip-rule="evenodd" d="M0 31.9838V0.5625H5.09218V14.1116H30.9979V0.5625H36.0647V31.9838H30.9979V18.4347H5.09218V31.9838H0Z" fill="white"/>
<path fill-rule="evenodd" clip-rule="evenodd" d="M52.2147 4.3457V27.6449H71.9459V4.3457H77.038V25.2573C77.038 27.7528 76.5823 29.4528 75.672 30.3561C74.7617 31.2595 73.015 31.7117 70.4319 31.7117H53.7275C51.1868 31.7117 49.4499 31.2595 48.5189 30.3561C47.588 29.4528 47.1226 27.7528 47.1226 25.2573V4.3457H52.2147Z" fill="white"/>
<path fill-rule="evenodd" clip-rule="evenodd" d="M92.575 19.3836V27.6448H108.233C109.379 27.6448 110.174 27.421 110.62 26.9722C111.065 26.5246 111.288 25.7245 111.288 24.5718V22.4578C111.288 20.4087 110.27 19.3836 108.233 19.3836H92.575ZM111.098 13.1636V10.6287C111.098 9.15132 110.142 8.41148 108.233 8.41148H92.575V15.3182H108.233C109.293 15.3182 110.036 15.1802 110.46 14.9065C110.884 14.6317 111.098 14.0507 111.098 13.1636ZM87.4829 31.7117V4.3457H110.27C114.215 4.3457 116.189 6.12689 116.189 9.69042V12.8458C116.189 15.5941 114.619 17.1607 111.478 17.5469C114.746 17.8925 116.38 19.6597 116.38 22.851V26.3438C116.38 29.9224 113.77 31.7117 108.551 31.7117H87.4829Z" fill="white"/>
</svg>
