<svg width="28" height="28" viewBox="0 0 28 28" fill="none" xmlns="http://www.w3.org/2000/svg">
<g filter="url(#filter0_dd)">
<path fill-rule="evenodd" clip-rule="evenodd" d="M21.7129 10.8243C22.3537 11.1606 23.1334 11.5698 23.5974 13.1985C24.0753 14.8759 23.3604 15.8115 22.89 16.2178C22.3491 16.6691 21.6631 16.9137 20.956 16.9074C20.5591 16.9092 20.1659 16.8305 19.8008 16.6763C18.9298 16.315 18.3621 15.4721 18.3597 14.5367C18.307 12.9711 17.9533 12.2555 17.6636 11.9274V18.4543H19.1198C19.3276 18.4543 19.496 18.6212 19.496 18.8271C19.496 19.0329 19.3276 19.1998 19.1198 19.1998H4.75371C4.54592 19.1998 4.37744 19.0329 4.37744 18.8271C4.37744 18.6212 4.54592 18.4543 4.75371 18.4543H6.20989V3.48461C6.20989 1.53512 7.58704 0.841797 8.87765 0.841797H14.9883C16.2789 0.841797 17.6561 1.53512 17.6561 3.48461V10.9732C18.1678 11.1894 19.0144 11.9312 19.1047 14.4957C19.0938 15.147 19.4864 15.7385 20.0943 15.9867C20.8633 16.3027 21.7454 16.1737 22.3896 15.6512C22.7997 15.312 23.2174 14.6336 22.8674 13.4147C22.4799 12.0579 21.9079 11.7634 21.3021 11.454C20.5458 11.0664 19.767 10.6601 19.496 8.64722H18.5516C18.3438 8.64722 18.1753 8.48032 18.1753 8.27447V6.34361C18.175 6.20406 18.2535 6.07607 18.3785 6.01186L20.7039 4.80042V4.7296C20.6813 3.89836 19.4659 2.80993 18.9994 2.45954C18.8331 2.33499 18.8003 2.10053 18.926 1.93582C19.0517 1.77111 19.2884 1.73859 19.4547 1.86314C19.6578 2.01596 21.4226 3.37278 21.4602 4.71841V8.27819C21.4602 8.48405 21.2917 8.65094 21.0839 8.65094H20.2599C20.4856 10.1904 21.0049 10.4625 21.6558 10.7943C21.6747 10.8042 21.6938 10.8142 21.7129 10.8243ZM18.9316 6.57099V7.90544H20.7039V5.64657L18.9316 6.57099ZM6.96243 18.4543H16.9111V3.48461C16.9111 1.83332 15.7107 1.5873 14.9958 1.5873H8.87765C8.16274 1.5873 6.96243 1.83332 6.96243 3.48461V18.4543ZM9.05439 2.93203H14.8189C15.2731 2.9341 15.6408 3.30181 15.6429 3.75607V6.90922C15.6408 7.36348 15.2731 7.73119 14.8189 7.73326H9.05439C8.60014 7.73119 8.23243 7.36348 8.23036 6.90922V3.75607C8.23243 3.30181 8.60014 2.9341 9.05439 2.93203ZM14.8189 6.98072C14.8583 6.98072 14.8904 6.94869 14.8904 6.90922V3.75607C14.8904 3.7166 14.8583 3.68458 14.8189 3.68458H9.05439C9.01493 3.68458 8.9829 3.7166 8.9829 3.75607V6.90922C8.9829 6.94869 9.01493 6.98072 9.05439 6.98072H14.8189Z" fill="#2D76F9"/>
</g>
<defs>
<filter id="filter0_dd" x="0" y="0" width="28" height="28" filterUnits="userSpaceOnUse" color-interpolation-filters="sRGB">
<feFlood flood-opacity="0" result="BackgroundImageFix"/>
<feColorMatrix in="SourceAlpha" type="matrix" values="0 0 0 0 0 0 0 0 0 0 0 0 0 0 0 0 0 0 127 0"/>
<feOffset dy="4"/>
<feGaussianBlur stdDeviation="2"/>
<feColorMatrix type="matrix" values="0 0 0 0 0 0 0 0 0 0 0 0 0 0 0 0 0 0 0.25 0"/>
<feBlend mode="normal" in2="BackgroundImageFix" result="effect1_dropShadow"/>
<feColorMatrix in="SourceAlpha" type="matrix" values="0 0 0 0 0 0 0 0 0 0 0 0 0 0 0 0 0 0 127 0"/>
<feOffset dy="4"/>
<feGaussianBlur stdDeviation="2"/>
<feColorMatrix type="matrix" values="0 0 0 0 0 0 0 0 0 0 0 0 0 0 0 0 0 0 0.25 0"/>
<feBlend mode="normal" in2="effect1_dropShadow" result="effect2_dropShadow"/>
<feBlend mode="normal" in="SourceGraphic" in2="effect2_dropShadow" result="shape"/>
</filter>
</defs>
</svg>
