<svg width="22" height="16" viewBox="0 0 22 16" fill="none" xmlns="http://www.w3.org/2000/svg">
<mask id="path-1-inside-1" fill="white">
<rect x="0.111816" y="0.126709" width="21.7752" height="2.22558" rx="0.250212"/>
</mask>
<rect x="0.111816" y="0.126709" width="21.7752" height="2.22558" rx="0.250212" stroke="#6BA0FF" stroke-width="1.32" mask="url(#path-1-inside-1)"/>
<rect x="6.42293" y="2.04948" width="12.8459" height="4.87409" transform="rotate(90 6.42293 2.04948)" stroke="#6BA0FF" stroke-width="0.66"/>
<rect x="15.9623" y="1.82503" width="13.3069" height="4.88046" transform="rotate(90 15.9623 1.82503)" stroke="#6BA0FF" stroke-width="0.187659"/>
<rect x="10.8404" y="2.0612" width="12.8345" height="4.40812" transform="rotate(90 10.8404 2.0612)" stroke="#6BA0FF" stroke-width="0.66"/>
<rect x="20.6085" y="2.0612" width="12.8345" height="4.40812" transform="rotate(90 20.6085 2.0612)" stroke="#6BA0FF" stroke-width="0.66"/>
<rect x="20.6085" y="4.61971" width="19.0598" height="2.55759" transform="rotate(-180 20.6085 4.61971)" stroke="#6BA0FF" stroke-width="0.66"/>
<mask id="path-7-inside-2" fill="white">
<rect x="15.2227" y="8.26245" width="3.40128" height="2.45398" rx="0.44" transform="rotate(-180 15.2227 8.26245)"/>
</mask>
<rect x="15.2227" y="8.26245" width="3.40128" height="2.45398" rx="0.44" transform="rotate(-180 15.2227 8.26245)" stroke="#6BA0FF" stroke-width="1.32" mask="url(#path-7-inside-2)"/>
<rect x="20.5904" y="14.8958" width="19.0416" height="3.37762" transform="rotate(-180 20.5904 14.8958)" stroke="#6BA0FF" stroke-width="0.66"/>
<path d="M1.28906 8.26245H11.0809" stroke="#6BA0FF" stroke-width="0.66"/>
<path d="M0.338867 14.9202L21.6715 14.9202" stroke="#6BA0FF" stroke-width="0.66" stroke-linecap="round"/>
<path d="M15.8701 8.26245H20.9203" stroke="#6BA0FF" stroke-width="0.66"/>
<path d="M11.9688 9.20679H15.0753" stroke="#6BA0FF" stroke-width="0.66" stroke-linecap="round" stroke-linejoin="round"/>
</svg>
