<svg width="56" height="56" viewBox="0 0 56 56" fill="none" xmlns="http://www.w3.org/2000/svg">
<path d="M54.1955 42.0892L32.6659 20.5547C32.3941 20.2829 32.2827 19.8917 32.3509 19.5135C32.8345 16.8324 32.6213 14.0682 31.727 11.4876C30.7652 8.71243 29.0533 6.25815 26.7814 4.39725C24.5094 2.53635 21.7663 1.34164 18.8566 0.945783C15.9469 0.549921 12.9844 0.968389 10.298 2.15473L9.50944 2.50202C8.78488 2.82112 8.60724 3.76859 9.167 4.32848L16.4203 11.5835C16.8594 12.0226 16.86 12.7342 16.4218 13.1741L13.183 16.4251C12.7435 16.8663 12.0294 16.8669 11.5891 16.4265L4.336 9.17177C3.77705 8.61269 2.83107 8.78867 2.51055 9.51134L2.1657 10.2889C0.972848 12.9757 0.54933 15.941 0.942344 18.8543C1.33536 21.7677 2.52946 24.5147 4.39159 26.7892C6.25371 29.0636 8.71069 30.7762 11.4887 31.7361C14.0715 32.6285 16.8375 32.8377 19.5189 32.3484C19.898 32.2792 20.2904 32.3905 20.5628 32.663L42.0912 54.1963C42.4092 54.5147 42.7869 54.7674 43.2025 54.9397C43.6182 55.1121 44.0638 55.2008 44.5138 55.2008C44.9638 55.2008 45.4093 55.1121 45.825 54.9397C46.2407 54.7674 46.6184 54.5147 46.9364 54.1963L54.1955 46.9355C54.5139 46.6174 54.7665 46.2397 54.9388 45.8239C55.1111 45.4081 55.1998 44.9624 55.1998 44.5124C55.1998 44.0623 55.1111 43.6166 54.9388 43.2008C54.7665 42.785 54.5139 42.4073 54.1955 42.0892ZM45.3017 50.9869C44.8618 51.426 44.1492 51.4254 43.7099 50.9857L21.6186 28.8732C21.3308 28.5851 20.9098 28.4749 20.5177 28.5849L20.1767 28.6807C18.3183 29.2241 16.3588 29.3264 14.454 28.9794C12.5492 28.6325 10.7515 27.8458 9.20399 26.682C7.65646 25.5182 6.40171 24.0093 5.53951 22.2753C4.6773 20.5413 4.23142 18.6301 4.2373 16.6935C4.23692 16.5382 4.23947 16.383 4.24494 16.228C4.27653 15.3328 5.33591 15.001 5.96921 15.6345L11.5905 21.2571C12.0303 21.6969 12.7433 21.6969 13.183 21.2571L21.2804 13.1579C21.7203 12.7179 21.7199 12.0045 21.2795 11.5649L15.6582 5.95459C15.0248 5.32243 15.3543 4.26333 16.2485 4.22788C17.6913 4.17067 19.1385 4.36482 20.5243 4.80698C22.5741 5.46104 24.4194 6.63541 25.8802 8.21551C27.3409 9.79561 28.3672 11.7275 28.8589 13.8226C29.3506 15.9177 29.2909 18.1046 28.6857 20.1698L28.5898 20.5115C28.4798 20.9034 28.5898 21.324 28.8776 21.6118L50.9847 43.7239C51.4247 44.164 51.4242 44.8774 50.9838 45.317L45.3017 50.9869Z" fill="#6BA0FF"/>
</svg>
