<svg width="26" height="26" viewBox="0 0 26 26" fill="none" xmlns="http://www.w3.org/2000/svg">
<path d="M20.2219 2.88916H8.66637C8.28328 2.88916 7.91588 3.04134 7.64499 3.31223C7.37411 3.58311 7.22192 3.95051 7.22192 4.3336H20.2219V21.6669H8.66637V14.5892H7.22192V21.6669C7.22192 22.05 7.37411 22.4174 7.64499 22.6883C7.91588 22.9592 8.28328 23.1114 8.66637 23.1114H20.2219C20.605 23.1114 20.9724 22.9592 21.2433 22.6883C21.5142 22.4174 21.6664 22.05 21.6664 21.6669V4.3336C21.6664 3.95051 21.5142 3.58311 21.2433 3.31223C20.9724 3.04134 20.605 2.88916 20.2219 2.88916Z" fill="white"/>
<path d="M10.9174 13.3321C10.8418 13.3969 10.7804 13.4766 10.737 13.5662C10.6937 13.6558 10.6693 13.7534 10.6655 13.8528C10.6616 13.9523 10.6784 14.0515 10.7147 14.1442C10.751 14.2368 10.8061 14.321 10.8765 14.3914C10.9469 14.4618 11.031 14.5168 11.1237 14.5532C11.2164 14.5895 11.3156 14.6062 11.415 14.6024C11.5145 14.5985 11.6121 14.5742 11.7017 14.5308C11.7913 14.4875 11.871 14.4261 11.9357 14.3505L16.1174 10.1688L11.943 5.98714C11.8048 5.86882 11.6271 5.80699 11.4453 5.81402C11.2635 5.82104 11.0911 5.89639 10.9625 6.02501C10.8339 6.15363 10.7585 6.32606 10.7515 6.50782C10.7445 6.68959 10.8063 6.86731 10.9246 7.00547L13.3585 9.38881H2.88628C2.69474 9.38881 2.51104 9.4649 2.3756 9.60034C2.24015 9.73578 2.16406 9.91948 2.16406 10.111C2.16406 10.3026 2.24015 10.4863 2.3756 10.6217C2.51104 10.7572 2.69474 10.8333 2.88628 10.8333H13.3585L10.9174 13.3321Z" fill="white"/>
</svg>
