<svg width="20" height="26" viewBox="0 0 20 26" fill="none" xmlns="http://www.w3.org/2000/svg">
<path d="M11.3365 23.2338C12.4101 21.0118 14.4899 19.4827 16.3806 17.8968C18.5918 16.0422 20 13.2429 20 10.1111C20 4.52694 15.5229 0 10 0C4.47715 0 0 4.52694 0 10.1111C0 13.2429 1.40823 16.0422 3.61938 17.8968C5.51014 19.4827 7.5899 21.0118 8.66349 23.2338L10 26L11.3365 23.2338Z" fill="#000B20"/>
</svg>
