<svg width="21" height="21" viewBox="0 0 21 21" fill="none" xmlns="http://www.w3.org/2000/svg">
<circle cx="10.5" cy="10.5" r="10" stroke="#4688FF"/>
<path d="M9.67592 12.5323C9.67592 12.0305 9.73881 11.6308 9.86459 11.3333C9.99038 11.0358 10.2198 10.7437 10.5527 10.457C10.8894 10.1667 11.1132 9.9319 11.2242 9.75269C11.3352 9.56989 11.3907 9.37814 11.3907 9.17742C11.3907 8.57168 11.1021 8.26882 10.525 8.26882C10.2512 8.26882 10.0311 8.35125 9.86459 8.51613C9.70181 8.67742 9.61672 8.90143 9.60932 9.18817H8C8.0074 8.50358 8.23492 7.96774 8.68257 7.58065C9.13393 7.19355 9.74806 7 10.525 7C11.3093 7 11.9179 7.18459 12.3507 7.55376C12.7836 7.91935 13 8.43728 13 9.10753C13 9.41219 12.9297 9.70072 12.7891 9.97312C12.6485 10.2419 12.4025 10.5412 12.0511 10.871L11.6016 11.2849C11.3204 11.5466 11.1595 11.853 11.1188 12.2043L11.0966 12.5323H9.67592ZM9.51498 14.1828C9.51498 13.9427 9.59822 13.7455 9.76471 13.5914C9.93489 13.4337 10.1513 13.3548 10.414 13.3548C10.6767 13.3548 10.8912 13.4337 11.0577 13.5914C11.2279 13.7455 11.313 13.9427 11.313 14.1828C11.313 14.4194 11.2297 14.6147 11.0633 14.7688C10.9005 14.9229 10.6841 15 10.414 15C10.1439 15 9.92564 14.9229 9.75916 14.7688C9.59637 14.6147 9.51498 14.4194 9.51498 14.1828Z" fill="#4688FF"/>
</svg>
