<svg width="58" height="50" viewBox="0 0 58 50" fill="none" xmlns="http://www.w3.org/2000/svg">
<path d="M53.5714 21.4286C54.5573 21.4286 55.399 21.7773 56.0965 22.4749C56.7941 23.1724 57.1429 24.0141 57.1429 25C57.1429 25.9859 56.7941 26.8276 56.0965 27.5251C55.399 28.2227 54.5573 28.5714 53.5714 28.5714H53.1529L49.9442 47.0424C49.7954 47.8981 49.3862 48.6049 48.7165 49.1629C48.0469 49.721 47.2842 50 46.4286 50H10.7143C9.85863 50 9.09598 49.721 8.42634 49.1629C7.7567 48.6049 7.34747 47.8981 7.19866 47.0424L3.98996 28.5714H3.57143C2.58557 28.5714 1.74386 28.2227 1.04632 27.5251C0.348772 26.8276 0 25.9859 0 25C0 24.0141 0.348772 23.1724 1.04632 22.4749C1.74386 21.7773 2.58557 21.4286 3.57143 21.4286H53.5714ZM13.5324 43.75C14.016 43.7128 14.4206 43.5035 14.7461 43.1222C15.0716 42.7409 15.2158 42.3084 15.1786 41.8248L14.2857 30.2176C14.2485 29.734 14.0392 29.3294 13.6579 29.0039C13.2766 28.6784 12.8441 28.5342 12.3605 28.5714C11.8769 28.6086 11.4723 28.8179 11.1468 29.1992C10.8212 29.5805 10.6771 30.013 10.7143 30.4967L11.6071 42.1038C11.6443 42.5688 11.835 42.9594 12.1791 43.2757C12.5233 43.5919 12.9278 43.75 13.3929 43.75H13.5324ZM25 41.9643V30.3571C25 29.8735 24.8233 29.455 24.4699 29.1016C24.1164 28.7481 23.6979 28.5714 23.2143 28.5714C22.7307 28.5714 22.3121 28.7481 21.9587 29.1016C21.6053 29.455 21.4286 29.8735 21.4286 30.3571V41.9643C21.4286 42.4479 21.6053 42.8664 21.9587 43.2199C22.3121 43.5733 22.7307 43.75 23.2143 43.75C23.6979 43.75 24.1164 43.5733 24.4699 43.2199C24.8233 42.8664 25 42.4479 25 41.9643ZM35.7143 41.9643V30.3571C35.7143 29.8735 35.5376 29.455 35.1842 29.1016C34.8307 28.7481 34.4122 28.5714 33.9286 28.5714C33.4449 28.5714 33.0264 28.7481 32.673 29.1016C32.3196 29.455 32.1429 29.8735 32.1429 30.3571V41.9643C32.1429 42.4479 32.3196 42.8664 32.673 43.2199C33.0264 43.5733 33.4449 43.75 33.9286 43.75C34.4122 43.75 34.8307 43.5733 35.1842 43.2199C35.5376 42.8664 35.7143 42.4479 35.7143 41.9643ZM45.5357 42.1038L46.4286 30.4967C46.4658 30.013 46.3216 29.5805 45.9961 29.1992C45.6706 28.8179 45.266 28.6086 44.7824 28.5714C44.2987 28.5342 43.8663 28.6784 43.4849 29.0039C43.1036 29.3294 42.8943 29.734 42.8571 30.2176L41.9643 41.8248C41.9271 42.3084 42.0712 42.7409 42.3968 43.1222C42.7223 43.5035 43.1269 43.7128 43.6105 43.75H43.75C44.215 43.75 44.6196 43.5919 44.9637 43.2757C45.3078 42.9594 45.4985 42.5688 45.5357 42.1038ZM13.2812 8.14732L10.6864 19.6429H7.00335L9.82143 7.33817C10.1749 5.70126 11.0026 4.36663 12.3047 3.33426C13.6068 2.3019 15.0949 1.78571 16.769 1.78571H21.4286C21.4286 1.30208 21.6053 0.883557 21.9587 0.530134C22.3121 0.176711 22.7307 0 23.2143 0H33.9286C34.4122 0 34.8307 0.176711 35.1842 0.530134C35.5376 0.883557 35.7143 1.30208 35.7143 1.78571H40.3739C42.048 1.78571 43.5361 2.3019 44.8382 3.33426C46.1403 4.36663 46.968 5.70126 47.3214 7.33817L50.1395 19.6429H46.4565L43.8616 8.14732C43.657 7.32887 43.2338 6.65923 42.5921 6.13839C41.9503 5.61756 41.2109 5.35714 40.3739 5.35714H35.7143C35.7143 5.84077 35.5376 6.2593 35.1842 6.61272C34.8307 6.96615 34.4122 7.14286 33.9286 7.14286H23.2143C22.7307 7.14286 22.3121 6.96615 21.9587 6.61272C21.6053 6.2593 21.4286 5.84077 21.4286 5.35714H16.769C15.9319 5.35714 15.1925 5.61756 14.5508 6.13839C13.909 6.65923 13.4859 7.32887 13.2812 8.14732Z" fill="#6BA0FF"/>
</svg>
