<svg width="55" height="57" viewBox="0 0 55 57" fill="none" xmlns="http://www.w3.org/2000/svg">
<mask id="path-1-inside-1" fill="white">
<path fill-rule="evenodd" clip-rule="evenodd" d="M4.00444 0H26.2178C27.2798 0 28.2984 0.421895 29.0493 1.17287C29.8003 1.92385 30.2222 2.9424 30.2222 4.00444V56.6667H20.7778V51H9.44444V56.6667H0V4.00444C0 2.9424 0.421895 1.92385 1.17287 1.17287C1.92385 0.421895 2.9424 0 4.00444 0ZM5.66667 41.5556H9.44444V37.7778H5.66667V41.5556ZM5.66667 32.1111H9.44444V28.3333H5.66667V32.1111ZM5.66667 22.6667H9.44444V18.8889H5.66667V22.6667ZM5.66667 13.2222H9.44444V9.44444H5.66667V13.2222ZM13.2222 41.5556H17V37.7778H13.2222V41.5556ZM13.2222 32.1111H17V28.3333H13.2222V32.1111ZM13.2222 22.6667H17V18.8889H13.2222V22.6667ZM13.2222 13.2222H17V9.44444H13.2222V13.2222ZM20.7778 41.5556H24.5556V37.7778H20.7778V41.5556ZM20.7778 32.1111H24.5556V28.3333H20.7778V32.1111ZM20.7778 22.6667H24.5556V18.8889H20.7778V22.6667ZM20.7778 13.2222H24.5556V9.44444H20.7778V13.2222ZM34 9.44434H51C52.0019 9.44434 52.9628 9.84235 53.6713 10.5508C54.3798 11.2593 54.7778 12.2202 54.7778 13.2221V56.6666H34V9.44434ZM37.7778 41.5554H41.5556V37.7777H37.7778V41.5554ZM37.7778 32.111H41.5556V28.3332H37.7778V32.111ZM37.7778 22.6666H41.5556V18.8888H37.7778V22.6666ZM45.3333 41.5554H49.1111V37.7777H45.3333V41.5554ZM45.3333 32.111H49.1111V28.3332H45.3333V32.111ZM45.3333 22.6666H49.1111V18.8888H45.3333V22.6666Z"/>
</mask>
<path fill-rule="evenodd" clip-rule="evenodd" d="M4.00444 0H26.2178C27.2798 0 28.2984 0.421895 29.0493 1.17287C29.8003 1.92385 30.2222 2.9424 30.2222 4.00444V56.6667H20.7778V51H9.44444V56.6667H0V4.00444C0 2.9424 0.421895 1.92385 1.17287 1.17287C1.92385 0.421895 2.9424 0 4.00444 0ZM5.66667 41.5556H9.44444V37.7778H5.66667V41.5556ZM5.66667 32.1111H9.44444V28.3333H5.66667V32.1111ZM5.66667 22.6667H9.44444V18.8889H5.66667V22.6667ZM5.66667 13.2222H9.44444V9.44444H5.66667V13.2222ZM13.2222 41.5556H17V37.7778H13.2222V41.5556ZM13.2222 32.1111H17V28.3333H13.2222V32.1111ZM13.2222 22.6667H17V18.8889H13.2222V22.6667ZM13.2222 13.2222H17V9.44444H13.2222V13.2222ZM20.7778 41.5556H24.5556V37.7778H20.7778V41.5556ZM20.7778 32.1111H24.5556V28.3333H20.7778V32.1111ZM20.7778 22.6667H24.5556V18.8889H20.7778V22.6667ZM20.7778 13.2222H24.5556V9.44444H20.7778V13.2222ZM34 9.44434H51C52.0019 9.44434 52.9628 9.84235 53.6713 10.5508C54.3798 11.2593 54.7778 12.2202 54.7778 13.2221V56.6666H34V9.44434ZM37.7778 41.5554H41.5556V37.7777H37.7778V41.5554ZM37.7778 32.111H41.5556V28.3332H37.7778V32.111ZM37.7778 22.6666H41.5556V18.8888H37.7778V22.6666ZM45.3333 41.5554H49.1111V37.7777H45.3333V41.5554ZM45.3333 32.111H49.1111V28.3332H45.3333V32.111ZM45.3333 22.6666H49.1111V18.8888H45.3333V22.6666Z" fill="#6BA0FF"/>
<path d="M29.0493 1.17287L29.4029 0.819321L29.4029 0.819321L29.0493 1.17287ZM30.2222 56.6667V57.1667H30.7222V56.6667H30.2222ZM20.7778 56.6667H20.2778V57.1667H20.7778V56.6667ZM20.7778 51H21.2778V50.5H20.7778V51ZM9.44444 51V50.5H8.94444V51H9.44444ZM9.44444 56.6667V57.1667H9.94444V56.6667H9.44444ZM0 56.6667H-0.5V57.1667H0V56.6667ZM1.17287 1.17287L0.819321 0.819321L0.819321 0.819321L1.17287 1.17287ZM9.44444 41.5556V42.0556H9.94444V41.5556H9.44444ZM5.66667 41.5556H5.16667V42.0556H5.66667V41.5556ZM9.44444 37.7778H9.94444V37.2778H9.44444V37.7778ZM5.66667 37.7778V37.2778H5.16667V37.7778H5.66667ZM9.44444 32.1111V32.6111H9.94444V32.1111H9.44444ZM5.66667 32.1111H5.16667V32.6111H5.66667V32.1111ZM9.44444 28.3333H9.94444V27.8333H9.44444V28.3333ZM5.66667 28.3333V27.8333H5.16667V28.3333H5.66667ZM9.44444 22.6667V23.1667H9.94444V22.6667H9.44444ZM5.66667 22.6667H5.16667V23.1667H5.66667V22.6667ZM9.44444 18.8889H9.94444V18.3889H9.44444V18.8889ZM5.66667 18.8889V18.3889H5.16667V18.8889H5.66667ZM9.44444 13.2222V13.7222H9.94444V13.2222H9.44444ZM5.66667 13.2222H5.16667V13.7222H5.66667V13.2222ZM9.44444 9.44444H9.94444V8.94444H9.44444V9.44444ZM5.66667 9.44444V8.94444H5.16667V9.44444H5.66667ZM17 41.5556V42.0556H17.5V41.5556H17ZM13.2222 41.5556H12.7222V42.0556H13.2222V41.5556ZM17 37.7778H17.5V37.2778H17V37.7778ZM13.2222 37.7778V37.2778H12.7222V37.7778H13.2222ZM17 32.1111V32.6111H17.5V32.1111H17ZM13.2222 32.1111H12.7222V32.6111H13.2222V32.1111ZM17 28.3333H17.5V27.8333H17V28.3333ZM13.2222 28.3333V27.8333H12.7222V28.3333H13.2222ZM17 22.6667V23.1667H17.5V22.6667H17ZM13.2222 22.6667H12.7222V23.1667H13.2222V22.6667ZM17 18.8889H17.5V18.3889H17V18.8889ZM13.2222 18.8889V18.3889H12.7222V18.8889H13.2222ZM17 13.2222V13.7222H17.5V13.2222H17ZM13.2222 13.2222H12.7222V13.7222H13.2222V13.2222ZM17 9.44444H17.5V8.94444H17V9.44444ZM13.2222 9.44444V8.94444H12.7222V9.44444H13.2222ZM24.5556 41.5556V42.0556H25.0556V41.5556H24.5556ZM20.7778 41.5556H20.2778V42.0556H20.7778V41.5556ZM24.5556 37.7778H25.0556V37.2778H24.5556V37.7778ZM20.7778 37.7778V37.2778H20.2778V37.7778H20.7778ZM24.5556 32.1111V32.6111H25.0556V32.1111H24.5556ZM20.7778 32.1111H20.2778V32.6111H20.7778V32.1111ZM24.5556 28.3333H25.0556V27.8333H24.5556V28.3333ZM20.7778 28.3333V27.8333H20.2778V28.3333H20.7778ZM24.5556 22.6667V23.1667H25.0556V22.6667H24.5556ZM20.7778 22.6667H20.2778V23.1667H20.7778V22.6667ZM24.5556 18.8889H25.0556V18.3889H24.5556V18.8889ZM20.7778 18.8889V18.3889H20.2778V18.8889H20.7778ZM24.5556 13.2222V13.7222H25.0556V13.2222H24.5556ZM20.7778 13.2222H20.2778V13.7222H20.7778V13.2222ZM24.5556 9.44444H25.0556V8.94444H24.5556V9.44444ZM20.7778 9.44444V8.94444H20.2778V9.44444H20.7778ZM34 9.44434V8.94434H33.5V9.44434H34ZM53.6713 10.5508L53.3177 10.9044L53.3177 10.9044L53.6713 10.5508ZM54.7778 56.6666V57.1666H55.2778V56.6666H54.7778ZM34 56.6666H33.5V57.1666H34V56.6666ZM41.5556 41.5554V42.0554H42.0556V41.5554H41.5556ZM37.7778 41.5554H37.2778V42.0554H37.7778V41.5554ZM41.5556 37.7777H42.0556V37.2777H41.5556V37.7777ZM37.7778 37.7777V37.2777H37.2778V37.7777H37.7778ZM41.5556 32.111V32.611H42.0556V32.111H41.5556ZM37.7778 32.111H37.2778V32.611H37.7778V32.111ZM41.5556 28.3332H42.0556V27.8332H41.5556V28.3332ZM37.7778 28.3332V27.8332H37.2778V28.3332H37.7778ZM41.5556 22.6666V23.1666H42.0556V22.6666H41.5556ZM37.7778 22.6666H37.2778V23.1666H37.7778V22.6666ZM41.5556 18.8888H42.0556V18.3888H41.5556V18.8888ZM37.7778 18.8888V18.3888H37.2778V18.8888H37.7778ZM49.1111 41.5554V42.0554H49.6111V41.5554H49.1111ZM45.3333 41.5554H44.8333V42.0554H45.3333V41.5554ZM49.1111 37.7777H49.6111V37.2777H49.1111V37.7777ZM45.3333 37.7777V37.2777H44.8333V37.7777H45.3333ZM49.1111 32.111V32.611H49.6111V32.111H49.1111ZM45.3333 32.111H44.8333V32.611H45.3333V32.111ZM49.1111 28.3332H49.6111V27.8332H49.1111V28.3332ZM45.3333 28.3332V27.8332H44.8333V28.3332H45.3333ZM49.1111 22.6666V23.1666H49.6111V22.6666H49.1111ZM45.3333 22.6666H44.8333V23.1666H45.3333V22.6666ZM49.1111 18.8888H49.6111V18.3888H49.1111V18.8888ZM45.3333 18.8888V18.3888H44.8333V18.8888H45.3333ZM26.2178 -0.5H4.00444V0.5H26.2178V-0.5ZM29.4029 0.819321C28.5582 -0.0254265 27.4124 -0.5 26.2178 -0.5V0.5C27.1472 0.5 28.0386 0.869217 28.6958 1.52643L29.4029 0.819321ZM30.7222 4.00444C30.7222 2.80979 30.2476 1.66407 29.4029 0.819321L28.6958 1.52643C29.353 2.18364 29.7222 3.07501 29.7222 4.00444H30.7222ZM30.7222 56.6667V4.00444H29.7222V56.6667H30.7222ZM20.7778 57.1667H30.2222V56.1667H20.7778V57.1667ZM20.2778 51V56.6667H21.2778V51H20.2778ZM9.44444 51.5H20.7778V50.5H9.44444V51.5ZM9.94444 56.6667V51H8.94444V56.6667H9.94444ZM0 57.1667H9.44444V56.1667H0V57.1667ZM-0.5 4.00444V56.6667H0.5V4.00444H-0.5ZM0.819321 0.819321C-0.0254262 1.66407 -0.5 2.80979 -0.5 4.00444H0.5C0.5 3.07501 0.869217 2.18364 1.52643 1.52643L0.819321 0.819321ZM4.00444 -0.5C2.80979 -0.5 1.66407 -0.0254262 0.819321 0.819321L1.52643 1.52643C2.18364 0.869217 3.07501 0.5 4.00444 0.5V-0.5ZM9.44444 41.0556H5.66667V42.0556H9.44444V41.0556ZM8.94444 37.7778V41.5556H9.94444V37.7778H8.94444ZM5.66667 38.2778H9.44444V37.2778H5.66667V38.2778ZM6.16667 41.5556V37.7778H5.16667V41.5556H6.16667ZM9.44444 31.6111H5.66667V32.6111H9.44444V31.6111ZM8.94444 28.3333V32.1111H9.94444V28.3333H8.94444ZM5.66667 28.8333H9.44444V27.8333H5.66667V28.8333ZM6.16667 32.1111V28.3333H5.16667V32.1111H6.16667ZM9.44444 22.1667H5.66667V23.1667H9.44444V22.1667ZM8.94444 18.8889V22.6667H9.94444V18.8889H8.94444ZM5.66667 19.3889H9.44444V18.3889H5.66667V19.3889ZM6.16667 22.6667V18.8889H5.16667V22.6667H6.16667ZM9.44444 12.7222H5.66667V13.7222H9.44444V12.7222ZM8.94444 9.44444V13.2222H9.94444V9.44444H8.94444ZM5.66667 9.94444H9.44444V8.94444H5.66667V9.94444ZM6.16667 13.2222V9.44444H5.16667V13.2222H6.16667ZM17 41.0556H13.2222V42.0556H17V41.0556ZM16.5 37.7778V41.5556H17.5V37.7778H16.5ZM13.2222 38.2778H17V37.2778H13.2222V38.2778ZM13.7222 41.5556V37.7778H12.7222V41.5556H13.7222ZM17 31.6111H13.2222V32.6111H17V31.6111ZM16.5 28.3333V32.1111H17.5V28.3333H16.5ZM13.2222 28.8333H17V27.8333H13.2222V28.8333ZM13.7222 32.1111V28.3333H12.7222V32.1111H13.7222ZM17 22.1667H13.2222V23.1667H17V22.1667ZM16.5 18.8889V22.6667H17.5V18.8889H16.5ZM13.2222 19.3889H17V18.3889H13.2222V19.3889ZM13.7222 22.6667V18.8889H12.7222V22.6667H13.7222ZM17 12.7222H13.2222V13.7222H17V12.7222ZM16.5 9.44444V13.2222H17.5V9.44444H16.5ZM13.2222 9.94444H17V8.94444H13.2222V9.94444ZM13.7222 13.2222V9.44444H12.7222V13.2222H13.7222ZM24.5556 41.0556H20.7778V42.0556H24.5556V41.0556ZM24.0556 37.7778V41.5556H25.0556V37.7778H24.0556ZM20.7778 38.2778H24.5556V37.2778H20.7778V38.2778ZM21.2778 41.5556V37.7778H20.2778V41.5556H21.2778ZM24.5556 31.6111H20.7778V32.6111H24.5556V31.6111ZM24.0556 28.3333V32.1111H25.0556V28.3333H24.0556ZM20.7778 28.8333H24.5556V27.8333H20.7778V28.8333ZM21.2778 32.1111V28.3333H20.2778V32.1111H21.2778ZM24.5556 22.1667H20.7778V23.1667H24.5556V22.1667ZM24.0556 18.8889V22.6667H25.0556V18.8889H24.0556ZM20.7778 19.3889H24.5556V18.3889H20.7778V19.3889ZM21.2778 22.6667V18.8889H20.2778V22.6667H21.2778ZM24.5556 12.7222H20.7778V13.7222H24.5556V12.7222ZM24.0556 9.44444V13.2222H25.0556V9.44444H24.0556ZM20.7778 9.94444H24.5556V8.94444H20.7778V9.94444ZM21.2778 13.2222V9.44444H20.2778V13.2222H21.2778ZM51 8.94434H34V9.94434H51V8.94434ZM54.0249 10.1973C53.2226 9.39503 52.1345 8.94434 51 8.94434V9.94434C51.8693 9.94434 52.703 10.2897 53.3177 10.9044L54.0249 10.1973ZM55.2778 13.2221C55.2778 12.0876 54.8271 10.9995 54.0249 10.1973L53.3177 10.9044C53.9324 11.5191 54.2778 12.3528 54.2778 13.2221H55.2778ZM55.2778 56.6666V13.2221H54.2778V56.6666H55.2778ZM34 57.1666H54.7778V56.1666H34V57.1666ZM33.5 9.44434V56.6666H34.5V9.44434H33.5ZM41.5556 41.0554H37.7778V42.0554H41.5556V41.0554ZM41.0556 37.7777V41.5554H42.0556V37.7777H41.0556ZM37.7778 38.2777H41.5556V37.2777H37.7778V38.2777ZM38.2778 41.5554V37.7777H37.2778V41.5554H38.2778ZM41.5556 31.611H37.7778V32.611H41.5556V31.611ZM41.0556 28.3332V32.111H42.0556V28.3332H41.0556ZM37.7778 28.8332H41.5556V27.8332H37.7778V28.8332ZM38.2778 32.111V28.3332H37.2778V32.111H38.2778ZM41.5556 22.1666H37.7778V23.1666H41.5556V22.1666ZM41.0556 18.8888V22.6666H42.0556V18.8888H41.0556ZM37.7778 19.3888H41.5556V18.3888H37.7778V19.3888ZM38.2778 22.6666V18.8888H37.2778V22.6666H38.2778ZM49.1111 41.0554H45.3333V42.0554H49.1111V41.0554ZM48.6111 37.7777V41.5554H49.6111V37.7777H48.6111ZM45.3333 38.2777H49.1111V37.2777H45.3333V38.2777ZM45.8333 41.5554V37.7777H44.8333V41.5554H45.8333ZM49.1111 31.611H45.3333V32.611H49.1111V31.611ZM48.6111 28.3332V32.111H49.6111V28.3332H48.6111ZM45.3333 28.8332H49.1111V27.8332H45.3333V28.8332ZM45.8333 32.111V28.3332H44.8333V32.111H45.8333ZM49.1111 22.1666H45.3333V23.1666H49.1111V22.1666ZM48.6111 18.8888V22.6666H49.6111V18.8888H48.6111ZM45.3333 19.3888H49.1111V18.3888H45.3333V19.3888ZM45.8333 22.6666V18.8888H44.8333V22.6666H45.8333Z" fill="black" mask="url(#path-1-inside-1)"/>
</svg>
